…
Slightly interesting that restricted works don't seem to increase at the same rate. Maybe the pandemic makes people less shy? Who knows. 


### Cumultative works over time

Next, I'm curious how the total evolved over time. This is easier if I start by accumulating the counts of each work type. 


```
## # A tibble: 7,269,693 x 9
##    creat_date language restricted complete word_count tags      ctAll ctComplete
##    <date>     <chr>    <lgl>      <lgl>         <dbl> <chr>     <int>      <int>
##  1 2008-09-13 en       FALSE      TRUE           1836 123+124+~     1          1
##  2 2008-09-13 en       FALSE      TRUE           1338 112+113+~     2          2
##  3 2008-09-13 en       FALSE      TRUE           1755 77+78+69~     3          3
##  4 2008-09-13 en       FALSE      TRUE           1392 78+77+84~     4          4
##  5 2008-09-13 en       TRUE       TRUE            705 78+77+84~     5          5
##  6 2008-09-13 en       TRUE       TRUE           1583 78+77+84~     6          6
##  7 2008-09-13 en       TRUE       TRUE          30830 13+93+23~     7          7
##  8 2008-09-13 en       FALSE      TRUE           2482 87+88+23~     8          8
##  9 2008-09-13 en       FALSE      TRUE          52843 84+23+13~     9          9
## 10 2008-09-13 en       FALSE      TRUE            733 79+80+82~    10         10
## # ... with 7,269,683 more rows, and 1 more variable: ctRestrict <int>
```
…
