…
```r
works <- works_merged
rm(works_merged)
```

Peek at the top of each:


```r
works
```

```
## # A tibble: 7,269,693 x 7
## # Groups:   wid [7,269,693]
##    creat_date   wid language restricted complete word_count tags                
##    <date>     <int> <chr>    <lgl>      <lgl>         <dbl> <chr>               
##  1 2008-09-13     1 en       FALSE      TRUE           1836 123+124+12445405+12~
##  2 2008-09-13     2 en       FALSE      TRUE           1338 112+113+13+114+16+7~
##  3 2008-09-13     3 en       FALSE      TRUE           1755 77+78+69+108+109+62~
##  4 2008-09-13     4 en       FALSE      TRUE           1392 78+77+103+66650+23+~
##  5 2008-09-13     5 en       TRUE       TRUE            705 78+77+103+579599+11~
##  6 2008-09-13     6 en       TRUE       TRUE           1583 78+77+103+579599+23~
##  7 2008-09-13     7 en       TRUE       TRUE          30830 13+1589+23+99+16+12~
##  8 2008-09-13     8 en       FALSE      TRUE           2482 87+88+23+11+6856+14~
##  9 2008-09-13     9 en       FALSE      TRUE          52843 103+23+13+16+70+103~
## 10 2008-09-13    10 en       FALSE      TRUE            733 79+5120+23143+10+16~
## # ... with 7,269,683 more rows
```

```r
tags
```

```
## # A tibble: 14,467,138 x 6
##       id type   name                            canonical cached_count merger_id
##    <dbl> <chr>  <chr>                           <lgl>            <dbl>     <dbl>
##  1     1 Media  TV Shows                        TRUE               910        NA
##  2     2 Media  Movies                          TRUE              1164        NA
##  3     3 Media  Books & Literature              TRUE               134        NA
##  4     4 Media  Cartoons & Comics & Graphic No~ TRUE               166        NA
##  5     5 Media  Anime & Manga                   TRUE               501        NA
##  6     6 Media  Music & Bands                   TRUE                19        NA
##  7     7 Media  Celebrities & Real People       TRUE                33        NA
##  8     8 Media  Other Media                     TRUE                11        NA
##  9     9 Rating Not Rated                       TRUE            825385        NA
## 10    10 Rating General Audiences               TRUE           2115153        NA
## # ... with 14,467,128 more rows
```
…
Start by pulling the row(s) for a given tag.


```r
tagpat <- makePat(getTagID("RWBY"))

wred <- works %>% 
  filter(grepl(pattern = tagpat, x = tags))

wred
```

```
## # A tibble: 25,691 x 7
## # Groups:   wid [25,691]
##    creat_date    wid language restricted complete word_count tags               
##    <date>      <int> <chr>    <lgl>      <lgl>         <dbl> <chr>              
##  1 2013-02-23 553012 en       FALSE      TRUE            706 10+116+16+767851+1~
##  2 2013-03-03 560262 en       FALSE      TRUE           8482 12+116+16+767851+9~
##  3 2013-08-17 724110 en       FALSE      TRUE           2853 10+21+14+767851+10~
##  4 2013-08-17 724234 en       FALSE      TRUE           1287 10+21+22+14+767851~
##  5 2013-08-24 730619 en       FALSE      TRUE           2677 11+116+14+767851+1~
##  6 2013-08-26 732987 en       FALSE      TRUE            356 10+21+14+767851+64~
##  7 2013-08-29 735405 en       FALSE      TRUE            235 10+21+14+767851+10~
##  8 2013-09-01 737805 en       FALSE      FALSE          2901 10+116+16+767851+9~
##  9 2013-09-02 739630 en       FALSE      TRUE            838 116+14+767851+1072~
## 10 2013-09-09 745903 en       FALSE      TRUE           2133 13+116+20+767851+1~
## # ... with 25,681 more rows
```
…
```r
wlong_fandom <- wred %>% 
  mutate(tag_list = stringr::str_split(.data$tags, 
                                       stringr::fixed("+"))) %>% 
  unnest(tag_list) %>% 
  mutate(tag_list = as.integer(tag_list)) %>% 
  select(-tags)

wlong_fandom
```

```
## # A tibble: 470,820 x 7
## # Groups:   wid [25,691]
##    creat_date    wid language restricted complete word_count tag_list
##    <date>      <int> <chr>    <lgl>      <lgl>         <dbl>    <int>
##  1 2013-02-23 553012 en       FALSE      TRUE            706       10
##  2 2013-02-23 553012 en       FALSE      TRUE            706      116
##  3 2013-02-23 553012 en       FALSE      TRUE            706       16
##  4 2013-02-23 553012 en       FALSE      TRUE            706   767851
##  5 2013-02-23 553012 en       FALSE      TRUE            706   150769
##  6 2013-02-23 553012 en       FALSE      TRUE            706    30924
##  7 2013-02-23 553012 en       FALSE      TRUE            706   994409
##  8 2013-02-23 553012 en       FALSE      TRUE            706  6418184
##  9 2013-02-23 553012 en       FALSE      TRUE            706   813700
## 10 2013-03-03 560262 en       FALSE      TRUE           8482       12
## # ... with 470,810 more rows
```
In the long data frame, I've dropped the original `tags` column, which holds the character string of tag IDs separated by + symbols. It's still there in the `wred` frame, but it's not useful and hurts readability to repeat it every row of `wlong`. 

Finally, for ease of reading I want to attach tag names to my long works frame. Might as well add tag type while I'm in the neighborhood. 


```r
wtagged_fandom <- wlong_fandom %>% 
  left_join(tags %>% select(id, type, name), 
            by = c("tag_list" = "id"))

wtagged_fandom
```

```
## # A tibble: 470,820 x 9
## # Groups:   wid [25,691]
##    creat_date    wid language restricted complete word_count tag_list type      
##    <date>      <int> <chr>    <lgl>      <lgl>         <dbl>    <dbl> <chr>     
##  1 2013-02-23 553012 en       FALSE      TRUE            706       10 Rating    
##  2 2013-02-23 553012 en       FALSE      TRUE            706      116 Category  
##  3 2013-02-23 553012 en       FALSE      TRUE            706       16 ArchiveWa~
##  4 2013-02-23 553012 en       FALSE      TRUE            706   767851 Fandom    
##  5 2013-02-23 553012 en       FALSE      TRUE            706   150769 Freeform  
##  6 2013-02-23 553012 en       FALSE      TRUE            706    30924 Freeform  
##  7 2013-02-23 553012 en       FALSE      TRUE            706   994409 Relations~
##  8 2013-02-23 553012 en       FALSE      TRUE            706  6418184 Character 
##  9 2013-02-23 553012 en       FALSE      TRUE            706   813700 Character 
## 10 2013-03-03 560262 en       FALSE      TRUE           8482       12 Rating    
## # ... with 470,810 more rows, and 1 more variable: name <chr>
```
…
Nine of my rows came up with `NA` for a tag name. Looking at the first of them, 54605328:


```r
tags %>% filter(id > 54605320)
```

```
## # A tibble: 197,225 x 6
##          id type      name                      canonical cached_count merger_id
##       <dbl> <chr>     <chr>                     <lgl>            <dbl>     <dbl>
##  1 54605322 Freeform  Redacted                  FALSE                1        NA
##  2 54605325 Freeform  Redacted                  FALSE                1        NA
##  3 54605331 Freeform  Redacted                  FALSE                1        NA
##  4 54605334 Unsorted~ Redacted                  FALSE                1        NA
##  5 54605337 Relation~ Karl Edward Bayerlein/Os~ TRUE                 0        NA
##  6 54605352 Freeform  Redacted                  FALSE                1        NA
##  7 54605355 Freeform  Redacted                  FALSE                1        NA
##  8 54605358 Freeform  Redacted                  FALSE                1        NA
##  9 54605361 Freeform  Redacted                  FALSE                1        NA
## 10 54605364 Unsorted~ Redacted                  FALSE                1        NA
## # ... with 197,215 more rows
```
…
After everything above, this goes pretty fast. Pull in-use tags from filtered works frame:


```r
tags_used <- wlong_fandom %>% 
  ungroup() %>%   # had a wid group, might want to check back for problems there
  select(tag_list) %>% 
  distinct() %>% 
  arrange(tag_list)

tags_used
```

```
## # A tibble: 61,257 x 1
##    tag_list
##       <int>
##  1        9
##  2       10
##  3       11
##  4       12
##  5       13
##  6       14
##  7       16
##  8       17
##  9       18
## 10       19
## # ... with 61,247 more rows
```

Then join tags frame info to each in-use tag:


```r
tred <- tags_used %>% 
  left_join(tags, by = c("tag_list" = "id")) %>% 
  rename(id = tag_list)

tred
```

```
## # A tibble: 61,257 x 6
##       id type         name                      canonical cached_count merger_id
##    <dbl> <chr>        <chr>                     <lgl>            <dbl>     <dbl>
##  1     9 Rating       Not Rated                 TRUE            825385        NA
##  2    10 Rating       General Audiences         TRUE           2115153        NA
##  3    11 Rating       Teen And Up Audiences     TRUE           2272688        NA
##  4    12 Rating       Mature                    TRUE           1151260        NA
##  5    13 Rating       Explicit                  TRUE           1238331        NA
##  6    14 ArchiveWarn~ Choose Not To Use Archiv~ TRUE           2556570        NA
##  7    16 ArchiveWarn~ No Archive Warnings Apply TRUE           4095298        NA
##  8    17 ArchiveWarn~ Graphic Depictions Of Vi~ TRUE            519931        NA
##  9    18 ArchiveWarn~ Major Character Death     TRUE            379648        NA
## 10    19 ArchiveWarn~ Rape/Non-Con              TRUE            192479        NA
## # ... with 61,247 more rows
```
…
